tb_4loops.vcd
$date
	Sun Nov 24 23:19:40 2024
$end
$version
	Icarus Verilog
$end
$timescale
	1s
$end
$scope module tb_4loops $end
$var wire 32 ! predicted_pc [31:0] $end
$var wire 32 " pc_out [31:0] $end
$var wire 1 # btb_hit $end
$var parameter 32 $ CLK_PERIOD $end
$var parameter 32 % N $end
$var reg 1 & branch_taken_execute $end
$var reg 1 ' clk $end
$var reg 32 ( current_pc [31:0] $end
$var reg 1 ) flush $end
$var reg 32 * pc_execute [31:0] $end
$var reg 1 + reset $end
$var reg 1 , stall $end
$var reg 32 - target_pc_execute [31:0] $end
$var integer 32 . correct_predictions [31:0] $end
$var integer 32 / current_loop_branch_instructions [31:0] $end
$var integer 32 0 total_branch_instructions [31:0] $end
$var integer 32 1 total_instructions [31:0] $end
$var integer 32 2 total_predictions [31:0] $end
$scope module dut $end
$var wire 1 & branch_taken_execute $end
$var wire 1 ' clk $end
$var wire 1 ) flush $end
$var wire 32 3 pc_execute [31:0] $end
$var wire 1 + reset $end
$var wire 1 , stall $end
$var wire 32 4 target_pc_execute [31:0] $end
$var wire 28 5 tag_bits_execute [27:0] $end
$var wire 28 6 tag_bits [27:0] $end
$var wire 4 7 set_index_execute [3:0] $end
$var wire 4 8 set_index [3:0] $end
$var parameter 32 9 NUM_SETS $end
$var parameter 32 : NUM_WAYS $end
$var parameter 2 ; STRONGLY_NOT_TAKEN $end
$var parameter 2 < STRONGLY_TAKEN $end
$var parameter 2 = WEAKLY_NOT_TAKEN $end
$var parameter 2 > WEAKLY_TAKEN $end
$var reg 1 # btb_hit $end
$var reg 32 ? current_pc [31:0] $end
$var reg 32 @ pc_out [31:0] $end
$var reg 32 A predicted_pc [31:0] $end
$scope begin $ivl_for_loop1 $end
$var integer 32 B i [31:0] $end
$upscope $end
$scope begin $ivl_for_loop2 $end
$var integer 32 C set [31:0] $end
$scope begin $ivl_for_loop3 $end
$var integer 32 D way [31:0] $end
$upscope $end
$upscope $end
$scope begin $unm_blk_19 $end
$var reg 1 E found $end
$var integer 32 F i [31:0] $end
$var integer 32 G replace_way [31:0] $end
$upscope $end
$upscope $end
$scope begin $ivl_for_loop0 $end
$var integer 32 H current_loop [31:0] $end
$upscope $end
$upscope $end
$enddefinitions $end
$comment Show the parameter values. $end
$dumpall
b10 >
b1 =
b11 <
b0 ;
b100 :
b10000 9
b101 %
b1010 $
$end
#0
$dumpvars
bx H
bx G
bx F
xE
b100 D
b10000 C
b100 B
b100 A
b0 @
b0 ?
b0 8
b0 7
b0 6
b0 5
b0 4
b0 3
b0 2
b0 1
b0 0
b0 /
b0 .
b0 -
0,
1+
b0 *
0)
bx (
0'
0&
0#
b0 "
b100 !
$end
#5
b100 D
b10000 C
1'
#10
0'
b1 1
b0 H
b100 (
0+
#15
b100 "
b100 @
b100 B
b1000 !
b1000 A
b1 8
b100 ?
1'
#20
0'
b1000 (
b10 1
#25
b1000 "
b1000 @
b100 B
b1100 !
b1100 A
b10 8
b1000 ?
1'
#30
0'
b1100 (
b11 1
#35
b1100 "
b1100 @
b100 B
b10000 !
b10000 A
b11 8
b1100 ?
1'
#40
0'
b10000 (
b100 1
#45
b10000 "
b10000 @
b100 B
b10100 !
b10100 A
b100 8
b10000 ?
1'
#50
0'
b10100 (
b101 1
#55
b10100 "
b10100 @
b100 B
b11000 !
b11000 A
b101 8
b10100 ?
1'
#60
b101 7
0'
1)
b100 -
b100 4
b10100 *
b10100 3
1&
b1 /
b1 0
b110 1
#65
b100 !
b100 A
1#
b100 B
b0 G
b100 F
0E
1'
#70
0'
b100 (
0)
#75
b100 "
b100 @
b100 B
b1000 !
b1000 A
0#
b1 8
b100 ?
1E
b100 F
1'
#80
0'
b1000 (
0&
b111 1
#85
b1000 "
b1000 @
b100 B
b1100 !
b1100 A
b10 8
b1000 ?
1'
#90
0'
b1100 (
b1000 1
#95
b1100 "
b1100 @
b100 B
b10000 !
b10000 A
b11 8
b1100 ?
1'
#100
0'
b10000 (
b1001 1
#105
b10000 "
b10000 @
b100 B
b10100 !
b10100 A
b100 8
b10000 ?
1'
#110
0'
b10100 (
b1010 1
#115
b10100 "
b10100 @
1#
b100 B
b100 !
b100 A
b101 8
b10100 ?
1'
#120
0'
1)
b1 .
1&
b10 /
b10 0
b1011 1
b1 2
#125
b100 F
1E
1'
#130
0'
b100 (
0)
#135
b100 "
b100 @
b100 B
b1000 !
b1000 A
0#
b1 8
b100 ?
b100 F
1E
1'
#140
0'
b1000 (
0&
b1100 1
#145
b1000 "
b1000 @
b100 B
b1100 !
b1100 A
b10 8
b1000 ?
1'
#150
0'
b1100 (
b1101 1
#155
b1100 "
b1100 @
b100 B
b10000 !
b10000 A
b11 8
b1100 ?
1'
#160
0'
b10000 (
b1110 1
#165
b10000 "
b10000 @
b100 B
b10100 !
b10100 A
b100 8
b10000 ?
1'
#170
0'
b10100 (
b1111 1
#175
b10100 "
b10100 @
1#
b100 B
b100 !
b100 A
b101 8
b10100 ?
1'
#180
0'
1)
b10 .
1&
b11 /
b11 0
b10000 1
b10 2
#185
b100 F
1E
1'
#190
0'
b100 (
0)
#195
b100 "
b100 @
b100 B
b1000 !
b1000 A
0#
b1 8
b100 ?
b100 F
1E
1'
#200
0'
b1000 (
0&
b10001 1
#205
b1000 "
b1000 @
b100 B
b1100 !
b1100 A
b10 8
b1000 ?
1'
#210
0'
b1100 (
b10010 1
#215
b1100 "
b1100 @
b100 B
b10000 !
b10000 A
b11 8
b1100 ?
1'
#220
0'
b10000 (
b10011 1
#225
b10000 "
b10000 @
b100 B
b10100 !
b10100 A
b100 8
b10000 ?
1'
#230
0'
b10100 (
b10100 1
#235
b10100 "
b10100 @
1#
b100 B
b100 !
b100 A
b101 8
b10100 ?
1'
#240
0'
1)
b11 .
1&
b100 /
b100 0
b10101 1
b11 2
#245
b100 F
1E
1'
#250
0'
b100 (
0)
#255
b100 "
b100 @
b100 B
b1000 !
b1000 A
0#
b1 8
b100 ?
b100 F
1E
1'
#260
0'
b1000 (
0&
b10110 1
#265
b1000 "
b1000 @
b100 B
b1100 !
b1100 A
b10 8
b1000 ?
1'
#270
0'
b1100 (
b10111 1
#275
b1100 "
b1100 @
b100 B
b10000 !
b10000 A
b11 8
b1100 ?
1'
#280
0'
b10000 (
b11000 1
#285
b10000 "
b10000 @
b100 B
b10100 !
b10100 A
b100 8
b10000 ?
1'
#290
0'
b10100 (
b11001 1
#295
b10100 "
b10100 @
1#
b100 B
b100 !
b100 A
b101 8
b10100 ?
1'
#300
0'
1)
b11000 -
b11000 4
b101 /
b101 0
b11010 1
b100 2
#305
b100 B
b100 !
b100 A
1#
b100 F
1E
1'
#310
0'
b11000 (
0)
#315
b100 "
b100 @
b100 B
b1000 !
b1000 A
0#
b1 8
b100 ?
1'
#320
b1000 7
0'
b100000 (
b100100 -
b100100 4
b100000 *
b100000 3
1&
#325
b1000 "
b1000 @
b100 B
b1100 !
b1100 A
b10 8
b1000 ?
b100 F
0E
1'
#330
0'
1)
b110 0
b11011 1
b1 /
b1 H
#335
b100000 "
b100000 @
1#
b100 B
b100100 !
b100100 A
b1000 8
b100000 ?
1E
b100 F
1'
#340
0'
b100100 (
0)
#345
b100100 "
b100100 @
b100 B
b101000 !
b101000 A
0#
b1001 8
b100100 ?
b100 F
1E
1'
#350
0'
b101000 (
0&
b11100 1
#355
b101000 "
b101000 @
b100 B
b101100 !
b101100 A
b1010 8
b101000 ?
1'
#360
0'
b101100 (
b11101 1
#365
b101100 "
b101100 @
b100 B
b110000 !
b110000 A
b1011 8
b101100 ?
1'
#370
0'
b110000 (
b11110 1
#375
b110000 "
b110000 @
b100 B
b110100 !
b110100 A
b1100 8
b110000 ?
1'
#380
0'
b110100 (
b11111 1
#385
b110100 "
b110100 @
b100 B
b111000 !
b111000 A
b1101 8
b110100 ?
1'
#390
b1101 7
0'
1)
b110100 *
b110100 3
1&
b10 /
b111 0
b100000 1
#395
b100100 !
b100100 A
1#
b100 B
b100 F
0E
1'
#400
0'
b100100 (
0)
#405
b100100 "
b100100 @
b100 B
b101000 !
b101000 A
0#
b1001 8
b100100 ?
1E
b100 F
1'
#410
0'
b101000 (
0&
b100001 1
#415
b101000 "
b101000 @
b100 B
b101100 !
b101100 A
b1010 8
b101000 ?
1'
#420
0'
b101100 (
b100010 1
#425
b101100 "
b101100 @
b100 B
b110000 !
b110000 A
b1011 8
b101100 ?
1'
#430
0'
b110000 (
b100011 1
#435
b110000 "
b110000 @
b100 B
b110100 !
b110100 A
b1100 8
b110000 ?
1'
#440
0'
b110100 (
b100100 1
#445
b110100 "
b110100 @
1#
b100 B
b100100 !
b100100 A
b1101 8
b110100 ?
1'
#450
0'
1)
b100 .
1&
b11 /
b1000 0
b100101 1
b101 2
#455
b100 F
1E
1'
#460
0'
b100100 (
0)
#465
b100100 "
b100100 @
b100 B
b101000 !
b101000 A
0#
b1001 8
b100100 ?
b100 F
1E
1'
#470
0'
b101000 (
0&
b100110 1
#475
b101000 "
b101000 @
b100 B
b101100 !
b101100 A
b1010 8
b101000 ?
1'
#480
0'
b101100 (
b100111 1
#485
b101100 "
b101100 @
b100 B
b110000 !
b110000 A
b1011 8
b101100 ?
1'
#490
0'
b110000 (
b101000 1
#495
b110000 "
b110000 @
b100 B
b110100 !
b110100 A
b1100 8
b110000 ?
1'
#500
0'
b110100 (
b101001 1
#505
b110100 "
b110100 @
1#
b100 B
b100100 !
b100100 A
b1101 8
b110100 ?
1'
#510
0'
1)
b101 .
1&
b100 /
b1001 0
b101010 1
b110 2
#515
b100 F
1E
1'
#520
0'
b100100 (
0)
#525
b100100 "
b100100 @
b100 B
b101000 !
b101000 A
0#
b1001 8
b100100 ?
b100 F
1E
1'
#530
0'
b101000 (
0&
b101011 1
#535
b101000 "
b101000 @
b100 B
b101100 !
b101100 A
b1010 8
b101000 ?
1'
#540
0'
b101100 (
b101100 1
#545
b101100 "
b101100 @
b100 B
b110000 !
b110000 A
b1011 8
b101100 ?
1'
#550
0'
b110000 (
b101101 1
#555
b110000 "
b110000 @
b100 B
b110100 !
b110100 A
b1100 8
b110000 ?
1'
#560
0'
b110100 (
b101110 1
#565
b110100 "
b110100 @
1#
b100 B
b100100 !
b100100 A
b1101 8
b110100 ?
1'
#570
0'
1)
b111000 -
b111000 4
b101 /
b1010 0
b101111 1
b111 2
#575
b100 B
b100100 !
b100100 A
1#
b100 F
1E
1'
#580
0'
b111000 (
0)
#585
b100100 "
b100100 @
b100 B
b101000 !
b101000 A
0#
b1001 8
b100100 ?
1'
#590
b0 7
b1 5
0'
b1000000 (
b1000100 -
b1000100 4
b1000000 *
b1000000 3
1&
#595
b101000 "
b101000 @
b100 B
b101100 !
b101100 A
b1010 8
b101000 ?
b100 F
0E
1'
#600
0'
1)
b1011 0
b110000 1
b1 /
b10 H
#605
b1000000 "
b1000000 @
1#
b100 B
b1000100 !
b1000100 A
b0 8
b1 6
b1000000 ?
1E
b100 F
1'
#610
0'
b1000100 (
0)
#615
b1000100 "
b1000100 @
b100 B
b1001000 !
b1001000 A
0#
b1 8
b1000100 ?
b100 F
1E
1'
#620
0'
b1001000 (
0&
b110001 1
#625
b1001000 "
b1001000 @
b100 B
b1001100 !
b1001100 A
b10 8
b1001000 ?
1'
#630
0'
b1001100 (
b110010 1
#635
b1001100 "
b1001100 @
b100 B
b1010000 !
b1010000 A
b11 8
b1001100 ?
1'
#640
0'
b1010000 (
b110011 1
#645
b1010000 "
b1010000 @
b100 B
b1010100 !
b1010100 A
b100 8
b1010000 ?
1'
#650
0'
b1010100 (
b110100 1
#655
b1010100 "
b1010100 @
b100 B
b1011000 !
b1011000 A
b101 8
b1010100 ?
1'
#660
b101 7
0'
1)
b1010100 *
b1010100 3
1&
b10 /
b1100 0
b110101 1
#665
b1000100 !
b1000100 A
1#
b100 B
b1 G
b100 F
0E
1'
#670
0'
b1000100 (
0)
#675
b1000100 "
b1000100 @
b100 B
b1001000 !
b1001000 A
0#
b1 8
b1000100 ?
1E
b100 F
1'
#680
0'
b1001000 (
0&
b110110 1
#685
b1001000 "
b1001000 @
b100 B
b1001100 !
b1001100 A
b10 8
b1001000 ?
1'
#690
0'
b1001100 (
b110111 1
#695
b1001100 "
b1001100 @
b100 B
b1010000 !
b1010000 A
b11 8
b1001100 ?
1'
#700
0'
b1010000 (
b111000 1
#705
b1010000 "
b1010000 @
b100 B
b1010100 !
b1010100 A
b100 8
b1010000 ?
1'
#710
0'
b1010100 (
b111001 1
#715
b1010100 "
b1010100 @
1#
b100 B
b1000100 !
b1000100 A
b101 8
b1010100 ?
1'
#720
0'
1)
b110 .
1&
b11 /
b1101 0
b111010 1
b1000 2
#725
b100 F
1E
1'
#730
0'
b1000100 (
0)
#735
b1000100 "
b1000100 @
b100 B
b1001000 !
b1001000 A
0#
b1 8
b1000100 ?
b100 F
1E
1'
#740
0'
b1001000 (
0&
b111011 1
#745
b1001000 "
b1001000 @
b100 B
b1001100 !
b1001100 A
b10 8
b1001000 ?
1'
#750
0'
b1001100 (
b111100 1
#755
b1001100 "
b1001100 @
b100 B
b1010000 !
b1010000 A
b11 8
b1001100 ?
1'
#760
0'
b1010000 (
b111101 1
#765
b1010000 "
b1010000 @
b100 B
b1010100 !
b1010100 A
b100 8
b1010000 ?
1'
#770
0'
b1010100 (
b111110 1
#775
b1010100 "
b1010100 @
1#
b100 B
b1000100 !
b1000100 A
b101 8
b1010100 ?
1'
#780
0'
1)
b111 .
1&
b100 /
b1110 0
b111111 1
b1001 2
#785
b100 F
1E
1'
#790
0'
b1000100 (
0)
#795
b1000100 "
b1000100 @
b100 B
b1001000 !
b1001000 A
0#
b1 8
b1000100 ?
b100 F
1E
1'
#800
0'
b1001000 (
0&
b1000000 1
#805
b1001000 "
b1001000 @
b100 B
b1001100 !
b1001100 A
b10 8
b1001000 ?
1'
#810
0'
b1001100 (
b1000001 1
#815
b1001100 "
b1001100 @
b100 B
b1010000 !
b1010000 A
b11 8
b1001100 ?
1'
#820
0'
b1010000 (
b1000010 1
#825
b1010000 "
b1010000 @
b100 B
b1010100 !
b1010100 A
b100 8
b1010000 ?
1'
#830
0'
b1010100 (
b1000011 1
#835
b1010100 "
b1010100 @
1#
b100 B
b1000100 !
b1000100 A
b101 8
b1010100 ?
1'
#840
0'
1)
b1011000 -
b1011000 4
b101 /
b1111 0
b1000100 1
b1010 2
#845
b100 B
b1000100 !
b1000100 A
1#
b100 F
1E
1'
#850
0'
b1011000 (
0)
#855
b1000100 "
b1000100 @
b100 B
b1001000 !
b1001000 A
0#
b1 8
b1000100 ?
1'
#860
b1000 7
0'
b1100000 (
b1100100 -
b1100100 4
b1100000 *
b1100000 3
1&
#865
b1001000 "
b1001000 @
b100 B
b1001100 !
b1001100 A
b10 8
b1001000 ?
b100 F
0E
1'
#870
0'
1)
b10000 0
b1000101 1
b1 /
b11 H
#875
b1100000 "
b1100000 @
1#
b100 B
b1100100 !
b1100100 A
b1000 8
b1100000 ?
1E
b100 F
1'
#880
0'
b1100100 (
0)
#885
b1100100 "
b1100100 @
b100 B
b1101000 !
b1101000 A
0#
b1001 8
b1100100 ?
b100 F
1E
1'
#890
0'
b1101000 (
0&
b1000110 1
#895
b1101000 "
b1101000 @
b100 B
b1101100 !
b1101100 A
b1010 8
b1101000 ?
1'
#900
0'
b1101100 (
b1000111 1
#905
b1101100 "
b1101100 @
b100 B
b1110000 !
b1110000 A
b1011 8
b1101100 ?
1'
#910
0'
b1110000 (
b1001000 1
#915
b1110000 "
b1110000 @
b100 B
b1110100 !
b1110100 A
b1100 8
b1110000 ?
1'
#920
0'
b1110100 (
b1001001 1
#925
b1110100 "
b1110100 @
b100 B
b1111000 !
b1111000 A
b1101 8
b1110100 ?
1'
#930
b1101 7
0'
1)
b1110100 *
b1110100 3
1&
b10 /
b10001 0
b1001010 1
#935
b1100100 !
b1100100 A
1#
b100 B
b100 F
0E
1'
#940
0'
b1100100 (
0)
#945
b1100100 "
b1100100 @
b100 B
b1101000 !
b1101000 A
0#
b1001 8
b1100100 ?
1E
b100 F
1'
#950
0'
b1101000 (
0&
b1001011 1
#955
b1101000 "
b1101000 @
b100 B
b1101100 !
b1101100 A
b1010 8
b1101000 ?
1'
#960
0'
b1101100 (
b1001100 1
#965
b1101100 "
b1101100 @
b100 B
b1110000 !
b1110000 A
b1011 8
b1101100 ?
1'
#970
0'
b1110000 (
b1001101 1
#975
b1110000 "
b1110000 @
b100 B
b1110100 !
b1110100 A
b1100 8
b1110000 ?
1'
#980
0'
b1110100 (
b1001110 1
#985
b1110100 "
b1110100 @
1#
b100 B
b1100100 !
b1100100 A
b1101 8
b1110100 ?
1'
#990
0'
1)
b1000 .
1&
b11 /
b10010 0
b1001111 1
b1011 2
#995
b100 F
1E
1'
#1000
0'
b1100100 (
0)
#1005
b1100100 "
b1100100 @
b100 B
b1101000 !
b1101000 A
0#
b1001 8
b1100100 ?
b100 F
1E
1'
#1010
0'
b1101000 (
0&
b1010000 1
#1015
b1101000 "
b1101000 @
b100 B
b1101100 !
b1101100 A
b1010 8
b1101000 ?
1'
#1020
0'
b1101100 (
b1010001 1
#1025
b1101100 "
b1101100 @
b100 B
b1110000 !
b1110000 A
b1011 8
b1101100 ?
1'
#1030
0'
b1110000 (
b1010010 1
#1035
b1110000 "
b1110000 @
b100 B
b1110100 !
b1110100 A
b1100 8
b1110000 ?
1'
#1040
0'
b1110100 (
b1010011 1
#1045
b1110100 "
b1110100 @
1#
b100 B
b1100100 !
b1100100 A
b1101 8
b1110100 ?
1'
#1050
0'
1)
b1001 .
1&
b100 /
b10011 0
b1010100 1
b1100 2
#1055
b100 F
1E
1'
#1060
0'
b1100100 (
0)
#1065
b1100100 "
b1100100 @
b100 B
b1101000 !
b1101000 A
0#
b1001 8
b1100100 ?
b100 F
1E
1'
#1070
0'
b1101000 (
0&
b1010101 1
#1075
b1101000 "
b1101000 @
b100 B
b1101100 !
b1101100 A
b1010 8
b1101000 ?
1'
#1080
0'
b1101100 (
b1010110 1
#1085
b1101100 "
b1101100 @
b100 B
b1110000 !
b1110000 A
b1011 8
b1101100 ?
1'
#1090
0'
b1110000 (
b1010111 1
#1095
b1110000 "
b1110000 @
b100 B
b1110100 !
b1110100 A
b1100 8
b1110000 ?
1'
#1100
0'
b1110100 (
b1011000 1
#1105
b1110100 "
b1110100 @
1#
b100 B
b1100100 !
b1100100 A
b1101 8
b1110100 ?
1'
#1110
0'
1)
b1111000 -
b1111000 4
b101 /
b10100 0
b1011001 1
b1101 2
#1115
b100 B
b1100100 !
b1100100 A
1#
b100 F
1E
1'
#1120
0'
b1111000 (
0)
#1125
b1100100 "
b1100100 @
b100 B
b1101000 !
b1101000 A
0#
b1001 8
b1100100 ?
1'
#1130
b0 7
b0 5
0'
b0 (
b100 -
b100 4
b0 *
b0 3
1&
#1135
b1101000 "
b1101000 @
b100 B
b1101100 !
b1101100 A
b1010 8
b1101000 ?
b100 F
0E
1'
#1140
0'
1)
b10101 0
b1011010 1
b1 /
b100 H
#1145
b0 "
b0 @
1#
b100 B
b100 !
b100 A
b0 8
b0 6
b0 ?
1E
b100 F
1'
#1150
0'
b100 (
0)
#1155
b100 "
b100 @
b100 B
b1000 !
b1000 A
0#
b1 8
b100 ?
b100 F
1E
1'
#1160
0'
b1000 (
0&
b1011011 1
#1165
b1000 "
b1000 @
b100 B
b1100 !
b1100 A
b10 8
b1000 ?
1'
#1170
0'
b1100 (
b1011100 1
#1175
b1100 "
b1100 @
b100 B
b10000 !
b10000 A
b11 8
b1100 ?
1'
#1180
0'
b10000 (
b1011101 1
#1185
b10000 "
b10000 @
b100 B
b10100 !
b10100 A
b100 8
b10000 ?
1'
#1190
0'
b10100 (
b1011110 1
#1195
b10100 "
b10100 @
1#
b100 B
b100 !
b100 A
b101 8
b10100 ?
1'
#1200
b101 7
0'
1)
b1010 .
b10100 *
b10100 3
1&
b10 /
b10110 0
b1011111 1
b1110 2
#1205
b100 B
b100 !
b100 A
1#
b100 F
1E
1'
#1210
0'
b100 (
0)
#1215
b100 "
b100 @
b100 B
b1000 !
b1000 A
0#
b1 8
b100 ?
b100 F
1E
1'
#1220
0'
b1000 (
0&
b1100000 1
#1225
b1000 "
b1000 @
b100 B
b1100 !
b1100 A
b10 8
b1000 ?
1'
#1230
0'
b1100 (
b1100001 1
#1235
b1100 "
b1100 @
b100 B
b10000 !
b10000 A
b11 8
b1100 ?
1'
#1240
0'
b10000 (
b1100010 1
#1245
b10000 "
b10000 @
b100 B
b10100 !
b10100 A
b100 8
b10000 ?
1'
#1250
0'
b10100 (
b1100011 1
#1255
b10100 "
b10100 @
1#
b100 B
b100 !
b100 A
b101 8
b10100 ?
1'
#1260
0'
1)
b1011 .
1&
b11 /
b10111 0
b1100100 1
b1111 2
#1265
b100 F
1E
1'
#1270
0'
b100 (
0)
#1275
b100 "
b100 @
b100 B
b1000 !
b1000 A
0#
b1 8
b100 ?
b100 F
1E
1'
#1280
0'
b1000 (
0&
b1100101 1
#1285
b1000 "
b1000 @
b100 B
b1100 !
b1100 A
b10 8
b1000 ?
1'
#1290
0'
b1100 (
b1100110 1
#1295
b1100 "
b1100 @
b100 B
b10000 !
b10000 A
b11 8
b1100 ?
1'
#1300
0'
b10000 (
b1100111 1
#1305
b10000 "
b10000 @
b100 B
b10100 !
b10100 A
b100 8
b10000 ?
1'
#1310
0'
b10100 (
b1101000 1
#1315
b10100 "
b10100 @
1#
b100 B
b100 !
b100 A
b101 8
b10100 ?
1'
#1320
0'
1)
b1100 .
1&
b100 /
b11000 0
b1101001 1
b10000 2
#1325
b100 F
1E
1'
#1330
0'
b100 (
0)
#1335
b100 "
b100 @
b100 B
b1000 !
b1000 A
0#
b1 8
b100 ?
b100 F
1E
1'
#1340
0'
b1000 (
0&
b1101010 1
#1345
b1000 "
b1000 @
b100 B
b1100 !
b1100 A
b10 8
b1000 ?
1'
#1350
0'
b1100 (
b1101011 1
#1355
b1100 "
b1100 @
b100 B
b10000 !
b10000 A
b11 8
b1100 ?
1'
#1360
0'
b10000 (
b1101100 1
#1365
b10000 "
b10000 @
b100 B
b10100 !
b10100 A
b100 8
b10000 ?
1'
#1370
0'
b10100 (
b1101101 1
#1375
b10100 "
b10100 @
1#
b100 B
b100 !
b100 A
b101 8
b10100 ?
1'
#1380
0'
1)
b11000 -
b11000 4
b101 /
b11001 0
b1101110 1
b10001 2
#1385
b100 B
b100 !
b100 A
1#
b100 F
1E
1'
#1390
0'
b11000 (
0)
#1395
b100 "
b100 @
b100 B
b1000 !
b1000 A
0#
b1 8
b100 ?
1'
#1400
b1000 7
0'
b100000 (
b100100 -
b100100 4
b100000 *
b100000 3
1&
#1405
b1000 "
b1000 @
b100 B
b1100 !
b1100 A
b10 8
b1000 ?
b100 F
1E
1'
#1410
0'
1)
b11010 0
b1101111 1
b1 /
b101 H
#1415
b100000 "
b100000 @
1#
b100 B
b100100 !
b100100 A
b1000 8
b100000 ?
b100 F
1E
1'
#1420
0'
b100100 (
0)
#1425
b100100 "
b100100 @
b100 B
b101000 !
b101000 A
0#
b1001 8
b100100 ?
b100 F
1E
1'
#1430
0'
b101000 (
0&
b1110000 1
#1435
b101000 "
b101000 @
b100 B
b101100 !
b101100 A
b1010 8
b101000 ?
1'
#1440
0'
b101100 (
b1110001 1
#1445
b101100 "
b101100 @
b100 B
b110000 !
b110000 A
b1011 8
b101100 ?
1'
#1450
0'
b110000 (
b1110010 1
#1455
b110000 "
b110000 @
b100 B
b110100 !
b110100 A
b1100 8
b110000 ?
1'
#1460
0'
b110100 (
b1110011 1
#1465
b110100 "
b110100 @
1#
b100 B
b100100 !
b100100 A
b1101 8
b110100 ?
1'
#1470
b1101 7
0'
1)
b1101 .
b110100 *
b110100 3
1&
b10 /
b11011 0
b1110100 1
b10010 2
#1475
b100 B
b100100 !
b100100 A
1#
b100 F
1E
1'
#1480
0'
b100100 (
0)
#1485
b100100 "
b100100 @
b100 B
b101000 !
b101000 A
0#
b1001 8
b100100 ?
b100 F
1E
1'
#1490
0'
b101000 (
0&
b1110101 1
#1495
b101000 "
b101000 @
b100 B
b101100 !
b101100 A
b1010 8
b101000 ?
1'
#1500
0'
b101100 (
b1110110 1
#1505
b101100 "
b101100 @
b100 B
b110000 !
b110000 A
b1011 8
b101100 ?
1'
#1510
0'
b110000 (
b1110111 1
#1515
b110000 "
b110000 @
b100 B
b110100 !
b110100 A
b1100 8
b110000 ?
1'
#1520
0'
b110100 (
b1111000 1
#1525
b110100 "
b110100 @
1#
b100 B
b100100 !
b100100 A
b1101 8
b110100 ?
1'
#1530
0'
1)
b1110 .
1&
b11 /
b11100 0
b1111001 1
b10011 2
#1535
b100 F
1E
1'
#1540
0'
b100100 (
0)
#1545
b100100 "
b100100 @
b100 B
b101000 !
b101000 A
0#
b1001 8
b100100 ?
b100 F
1E
1'
#1550
0'
b101000 (
0&
b1111010 1
#1555
b101000 "
b101000 @
b100 B
b101100 !
b101100 A
b1010 8
b101000 ?
1'
#1560
0'
b101100 (
b1111011 1
#1565
b101100 "
b101100 @
b100 B
b110000 !
b110000 A
b1011 8
b101100 ?
1'
#1570
0'
b110000 (
b1111100 1
#1575
b110000 "
b110000 @
b100 B
b110100 !
b110100 A
b1100 8
b110000 ?
1'
#1580
0'
b110100 (
b1111101 1
#1585
b110100 "
b110100 @
1#
b100 B
b100100 !
b100100 A
b1101 8
b110100 ?
1'
#1590
0'
1)
b1111 .
1&
b100 /
b11101 0
b1111110 1
b10100 2
#1595
b100 F
1E
1'
#1600
0'
b100100 (
0)
#1605
b100100 "
b100100 @
b100 B
b101000 !
b101000 A
0#
b1001 8
b100100 ?
b100 F
1E
1'
#1610
0'
b101000 (
0&
b1111111 1
#1615
b101000 "
b101000 @
b100 B
b101100 !
b101100 A
b1010 8
b101000 ?
1'
#1620
0'
b101100 (
b10000000 1
#1625
b101100 "
b101100 @
b100 B
b110000 !
b110000 A
b1011 8
b101100 ?
1'
#1630
0'
b110000 (
b10000001 1
#1635
b110000 "
b110000 @
b100 B
b110100 !
b110100 A
b1100 8
b110000 ?
1'
#1640
0'
b110100 (
b10000010 1
#1645
b110100 "
b110100 @
1#
b100 B
b100100 !
b100100 A
b1101 8
b110100 ?
1'
#1650
0'
1)
b111000 -
b111000 4
b101 /
b11110 0
b10000011 1
b10101 2
#1655
b100 B
b100100 !
b100100 A
1#
b100 F
1E
1'
#1660
0'
b111000 (
0)
#1665
b100100 "
b100100 @
b100 B
b101000 !
b101000 A
0#
b1001 8
b100100 ?
1'
#1670
b0 7
b1 5
0'
b1000000 (
b1000100 -
b1000100 4
b1000000 *
b1000000 3
1&
#1675
b101000 "
b101000 @
b100 B
b101100 !
b101100 A
b1010 8
b101000 ?
b100 F
1E
1'
#1680
0'
1)
b11111 0
b10000100 1
b1 /
b110 H
#1685
b1000000 "
b1000000 @
1#
b100 B
b1000100 !
b1000100 A
b0 8
b1 6
b1000000 ?
b100 F
1E
1'
#1690
0'
b1000100 (
0)
#1695
b1000100 "
b1000100 @
b100 B
b1001000 !
b1001000 A
0#
b1 8
b1000100 ?
b100 F
1E
1'
#1700
0'
b1001000 (
0&
b10000101 1
#1705
b1001000 "
b1001000 @
b100 B
b1001100 !
b1001100 A
b10 8
b1001000 ?
1'
#1710
0'
b1001100 (
b10000110 1
#1715
b1001100 "
b1001100 @
b100 B
b1010000 !
b1010000 A
b11 8
b1001100 ?
1'
#1720
0'
b1010000 (
b10000111 1
#1725
b1010000 "
b1010000 @
b100 B
b1010100 !
b1010100 A
b100 8
b1010000 ?
1'
#1730
0'
b1010100 (
b10001000 1
#1735
b1010100 "
b1010100 @
1#
b100 B
b1000100 !
b1000100 A
b101 8
b1010100 ?
1'
#1740
b101 7
0'
1)
b10000 .
b1010100 *
b1010100 3
1&
b10 /
b100000 0
b10001001 1
b10110 2
#1745
b100 B
b1000100 !
b1000100 A
1#
b100 F
1E
1'
#1750
0'
b1000100 (
0)
#1755
b1000100 "
b1000100 @
b100 B
b1001000 !
b1001000 A
0#
b1 8
b1000100 ?
b100 F
1E
1'
#1760
0'
b1001000 (
0&
b10001010 1
#1765
b1001000 "
b1001000 @
b100 B
b1001100 !
b1001100 A
b10 8
b1001000 ?
1'
#1770
0'
b1001100 (
b10001011 1
#1775
b1001100 "
b1001100 @
b100 B
b1010000 !
b1010000 A
b11 8
b1001100 ?
1'
#1780
0'
b1010000 (
b10001100 1
#1785
b1010000 "
b1010000 @
b100 B
b1010100 !
b1010100 A
b100 8
b1010000 ?
1'
#1790
0'
b1010100 (
b10001101 1
#1795
b1010100 "
b1010100 @
1#
b100 B
b1000100 !
b1000100 A
b101 8
b1010100 ?
1'
#1800
0'
1)
b10001 .
1&
b11 /
b100001 0
b10001110 1
b10111 2
#1805
b100 F
1E
1'
#1810
0'
b1000100 (
0)
#1815
b1000100 "
b1000100 @
b100 B
b1001000 !
b1001000 A
0#
b1 8
b1000100 ?
b100 F
1E
1'
#1820
0'
b1001000 (
0&
b10001111 1
#1825
b1001000 "
b1001000 @
b100 B
b1001100 !
b1001100 A
b10 8
b1001000 ?
1'
#1830
0'
b1001100 (
b10010000 1
#1835
b1001100 "
b1001100 @
b100 B
b1010000 !
b1010000 A
b11 8
b1001100 ?
1'
#1840
0'
b1010000 (
b10010001 1
#1845
b1010000 "
b1010000 @
b100 B
b1010100 !
b1010100 A
b100 8
b1010000 ?
1'
#1850
0'
b1010100 (
b10010010 1
#1855
b1010100 "
b1010100 @
1#
b100 B
b1000100 !
b1000100 A
b101 8
b1010100 ?
1'
#1860
0'
1)
b10010 .
1&
b100 /
b100010 0
b10010011 1
b11000 2
#1865
b100 F
1E
1'
#1870
0'
b1000100 (
0)
